Flexdashboard
…
## The following object is masked from 'package:graphics':
## 
##     layout

library(readr)

library(p8105.datasets)
data("instacart")

instacart %>% 
  janitor::clean_names()

## # A tibble: 1,384,617 x 15
##    order_id product_id add_to_cart_ord~ reordered user_id eval_set
##       <int>      <int>            <int>     <int>   <int> <chr>   
##  1        1      49302                1         1  112108 train   
##  2        1      11109                2         1  112108 train   
##  3        1      10246                3         0  112108 train   
##  4        1      49683                4         0  112108 train   
##  5        1      43633                5         1  112108 train   
##  6        1      13176                6         0  112108 train   
##  7        1      47209                7         0  112108 train   
##  8        1      22035                8         1  112108 train   
##  9       36      39612                1         0   79431 train   
## 10       36      19660                2         1   79431 train   
## # ... with 1,384,607 more rows, and 9 more variables: order_number <int>,
## #   order_dow <int>, order_hour_of_day <int>,
## #   days_since_prior_order <int>, product_name <chr>, aisle_id <int>,
## #   department_id <int>, aisle <chr>, department <chr>

instacart %>% 
  filter(aisle == "fresh vegetables") %>% 
  mutate(order_dow = as.character(order_dow)) %>% 
  plot_ly(y = ~order_hour_of_day, color = ~order_dow, type = "box", 
          colors = "Set2") 

instacart %>%
  group_by(aisle) %>%
  summarize(n = n()) %>%
  arrange(-n)

## # A tibble: 134 x 2
##    aisle                              n
##    <chr>                          <int>
##  1 fresh vegetables              150609
##  2 fresh fruits                  150473
##  3 packaged vegetables fruits     78493
##  4 yogurt                         55240
##  5 packaged cheese                41699
##  6 water seltzer sparkling water  36617
##  7 milk                           32644
##  8 chips pretzels                 31269
##  9 soy lactosefree                26240
## 10 bread                          23635
## # ... with 124 more rows
